%YAML 1.1
%TAG !u! tag:unity3d.com,2011:
--- !u!78 &1
TagManager:
  serializedVersion: 2
  tags:
  - MainCanvas
  layers:
  - Default
  - TransparentFX
  - Ignore Raycast
  - 
  - Water
  - UI
  - 
  - 
  - Enemy
  - Obstacle
  - Player
  - Bullet
  - 
  - 
  - 
  - 
  - 
  - 
  - 
  - 
  - 
  - 
  - 
  - 
  - 
  - 
  - 
  - 
  - 
  - 
  - 
  - 
  m_SortingLayers:
  - name: Tilemaps
    uniqueID: 1127901071
    locked: 0
  - name: GroundEffects
    uniqueID: 3793617247
    locked: 0
  - name: FakeShadows
    uniqueID: 1546901811
    locked: 0
  - name: Enemy
    uniqueID: 4073907753
    locked: 0
  - name: Player
    uniqueID: 2480481701
    locked: 0
  - name: BloodEffects
    uniqueID: 2305279737
    locked: 0
  - name: Bullets
    uniqueID: 2690581389
    locked: 0
  - name: Effects
    uniqueID: 2013940077
    locked: 0
  - name: Default
    uniqueID: 0
    locked: 0
  - name: OverEverything
    uniqueID: 3943960755
    locked: 0
